(footprint "SK9822_5.45" (version 20210228) (generator pcbnew) (layer "F.Cu")
  (tedit 605BF343)
  (fp_text reference "REF**" (at -4.9 -2.4 90 unlocked) (layer "F.SilkS")
    (effects (font (size 1 1) (thickness 0.15)))
    (tstamp d4654ec5-cfda-49e7-ac43-abe73bb70de4)
  )
  (fp_text value "SK9822_5.45" (at 0 -3.575 unlocked) (layer "F.Fab")
    (effects (font (size 1 1) (thickness 0.15)))
    (tstamp 2e6bb767-0055-49df-a8be-9ec8564ebb26)
  )
  (fp_text user "5.45" (at -4.9 1.35 90 unlocked) (layer "F.SilkS")
    (effects (font (size 1 1) (thickness 0.15)))
    (tstamp 1f266b45-9fa5-4c4f-aba6-980362a7756a)
  )
  (fp_line (start -4.1 3.075) (end 3.6 3.075) (layer "F.SilkS") (width 0.12) (tstamp 08fdcd23-e0a6-4dcb-bf19-c3d4455415ee))
  (fp_line (start -4.1 1.525) (end -4.1 3.075) (layer "F.SilkS") (width 0.12) (tstamp d8fb322d-9c5d-4843-8da1-cfdeaaeff8fc))
  (fp_rect (start -2.725 -2.5) (end 2.725 2.5) (layer "Edge.Cuts") (width 0.12) (fill none) (tstamp 916c35b7-b726-47ce-b60c-d60810dbba9e))
  (pad "1" smd rect (at -3.23 2.01) (size 1 1) (layers "F.Cu" "F.Paste" "F.Mask") (tstamp 08f614b2-0da5-4bd0-a042-6526fa9d0f55))
  (pad "2" smd rect (at -3.23 0.01) (size 1 1) (layers "F.Cu" "F.Paste" "F.Mask") (tstamp 184445ac-e959-494c-ac8b-ca8269dac9de))
  (pad "3" smd rect (at -3.23 -1.99) (size 1 1) (layers "F.Cu" "F.Paste" "F.Mask") (tstamp 7928e043-b76d-4d7e-9e7d-c7300ef3b744))
  (pad "4" smd rect (at 3.23 -1.98) (size 1 1) (layers "F.Cu" "F.Paste" "F.Mask") (tstamp 1da033f9-8fa7-4842-8ac7-c5bd879ab16d))
  (pad "5" smd rect (at 3.23 0.02) (size 1 1) (layers "F.Cu" "F.Paste" "F.Mask") (tstamp 5e604a35-9874-4d07-bab0-61f9d5ae0baa))
  (pad "6" smd rect (at 3.23 2.02) (size 1 1) (layers "F.Cu" "F.Paste" "F.Mask") (tstamp 2d1a9b46-f659-4685-a2dc-a2b62211aa12))
  (model "${KICAD6_3DMODEL_DIR}/LED_SMD.3dshapes/LED_RGB_5050-6.step"
    (offset (xyz 0 -0.02499999999999991 0))
    (scale (xyz 1 1 1))
    (rotate (xyz 180 0 0))
  )
)
