(footprint "SK9822_5.20" (version 20210228) (generator pcbnew) (layer "F.Cu")
  (tedit 605BF2CE)
  (fp_text reference "REF**" (at -4.9 -2.4 90 unlocked) (layer "F.SilkS")
    (effects (font (size 1 1) (thickness 0.15)))
    (tstamp 2d7a8edc-7cff-406e-ac8f-2a1cbb3f78f3)
  )
  (fp_text value "SK9822_5.20" (at 0 -3.575 unlocked) (layer "F.Fab")
    (effects (font (size 1 1) (thickness 0.15)))
    (tstamp f7e17ceb-dc32-43db-9a0d-3a359c7f6951)
  )
  (fp_text user "5.20" (at -4.9 1.35 90 unlocked) (layer "F.SilkS")
    (effects (font (size 1 1) (thickness 0.15)))
    (tstamp 4512bc14-60f0-4272-97e9-a07e2d62555f)
  )
  (fp_line (start -4.1 1.525) (end -4.1 3.075) (layer "F.SilkS") (width 0.12) (tstamp ab44fde1-dcec-4924-9552-07e0f9e6d882))
  (fp_line (start -4.1 3.075) (end 3.6 3.075) (layer "F.SilkS") (width 0.12) (tstamp fdb118d5-d852-4b03-9af2-85143873859a))
  (fp_rect (start -2.6 -2.5) (end 2.6 2.5) (layer "Edge.Cuts") (width 0.12) (fill none) (tstamp 437a4cb6-a8be-476e-9cf6-06114afa7152))
  (pad "1" smd rect (at -3.11 2.025) (size 1 1) (layers "F.Cu" "F.Paste" "F.Mask") (tstamp 0084fe5d-d225-428d-b3fd-9e796cffa950))
  (pad "2" smd rect (at -3.11 0.025) (size 1 1) (layers "F.Cu" "F.Paste" "F.Mask") (tstamp c77f74c9-7429-441c-ad6b-aa30c04b7622))
  (pad "3" smd rect (at -3.11 -1.975) (size 1 1) (layers "F.Cu" "F.Paste" "F.Mask") (tstamp aec66945-5908-41e8-abae-df632f3856d4))
  (pad "4" smd rect (at 3.125 -1.975) (size 1 1) (layers "F.Cu" "F.Paste" "F.Mask") (tstamp 97fda1b5-fc0d-4d73-83c7-b9880a4e78ef))
  (pad "5" smd rect (at 3.125 0.025) (size 1 1) (layers "F.Cu" "F.Paste" "F.Mask") (tstamp bad2d4cb-3465-4298-a94c-19945cce5bf2))
  (pad "6" smd rect (at 3.125 2.025) (size 1 1) (layers "F.Cu" "F.Paste" "F.Mask") (tstamp 95e984e8-d5c9-473f-84fe-7372b9619b2b))
  (model "${KICAD6_3DMODEL_DIR}/LED_SMD.3dshapes/LED_RGB_5050-6.step"
    (offset (xyz 0 -0.02499999999999991 0))
    (scale (xyz 1 1 1))
    (rotate (xyz 180 0 0))
  )
)
