(footprint "SK9822_5.40" (version 20210228) (generator pcbnew) (layer "F.Cu")
  (tedit 605C01A0)
  (fp_text reference "REF**" (at -4.9 -2.4 90 unlocked) (layer "F.SilkS")
    (effects (font (size 1 1) (thickness 0.15)))
    (tstamp 7f07f098-8309-4053-bcbc-7f371c984fe9)
  )
  (fp_text value "SK9822_5.40" (at 0 -3.575 unlocked) (layer "F.Fab")
    (effects (font (size 1 1) (thickness 0.15)))
    (tstamp c4ca23b0-ca88-4212-8582-9f9ba41670c0)
  )
  (fp_text user "5.40" (at -4.9 1.35 90 unlocked) (layer "F.SilkS")
    (effects (font (size 1 1) (thickness 0.15)))
    (tstamp 215166c1-9fd0-4517-91e5-88ac9ba92524)
  )
  (fp_line (start -4.1 3.075) (end 3.6 3.075) (layer "F.SilkS") (width 0.12) (tstamp 3e17550e-2ce2-41ab-854f-9a0e7d0256fc))
  (fp_line (start -4.1 1.525) (end -4.1 3.075) (layer "F.SilkS") (width 0.12) (tstamp 48fce6dc-de2b-4bf9-9e91-4daa0f9020e7))
  (fp_rect (start -2.7 -2.5) (end 2.7 2.5) (layer "Edge.Cuts") (width 0.12) (fill none) (tstamp b8802a35-79b1-4072-b6aa-cd12db9cdba0))
  (pad "1" smd rect (at -3.22 2.01) (size 1 1) (layers "F.Cu" "F.Paste" "F.Mask") (tstamp 4b41eb7b-3e8a-4491-acfc-b919db2753c3))
  (pad "2" smd rect (at -3.22 0.01) (size 1 1) (layers "F.Cu" "F.Paste" "F.Mask") (tstamp f7ab08df-1867-4ff2-99f5-475518d7ded9))
  (pad "3" smd rect (at -3.23 -1.98) (size 1 1) (layers "F.Cu" "F.Paste" "F.Mask") (tstamp 6c1e555b-2992-437b-ba3d-683a746fd198))
  (pad "4" smd rect (at 3.21 -1.98) (size 1 1) (layers "F.Cu" "F.Paste" "F.Mask") (tstamp e9a862f4-07dd-426f-8906-b4133281659b))
  (pad "5" smd rect (at 3.21 0.02) (size 1 1) (layers "F.Cu" "F.Paste" "F.Mask") (tstamp a203a001-0b02-44f3-878e-47dc32d00a0d))
  (pad "6" smd rect (at 3.21 2.02) (size 1 1) (layers "F.Cu" "F.Paste" "F.Mask") (tstamp 4cc6909e-141f-4643-ae24-6687aac98910))
  (model "${KICAD6_3DMODEL_DIR}/LED_SMD.3dshapes/LED_RGB_5050-6.step"
    (offset (xyz 0 -0.02499999999999991 0))
    (scale (xyz 1 1 1))
    (rotate (xyz 180 0 0))
  )
)
