(footprint "LED_RGB_5050-6" (version 20210228) (generator pcbnew) (layer "F.Cu")
  (tedit 6079B1F5)
  (descr "http://cdn.sparkfun.com/datasheets/Components/LED/5060BRG4.pdf")
  (tags "RGB LED 5050-6")
  (attr smd)
  (fp_text reference "REF**" (at 0 3.6 180) (layer "F.SilkS")
    (effects (font (size 1 1) (thickness 0.15)))
    (tstamp 00000000-0000-0000-0000-000000000000)
  )
  (fp_text value "LED_RGB_5050-6" (at 0 3.3) (layer "F.Fab")
    (effects (font (size 1 1) (thickness 0.15)))
    (tstamp 00000000-0000-0000-0000-000000000000)
  )
  (fp_text user "${REFERENCE}" (at 0 0) (layer "F.Fab")
    (effects (font (size 0.6 0.6) (thickness 0.06)))
    (tstamp 00000000-0000-0000-0000-000000000000)
  )
  (fp_line (start -3.7 -2.7) (end 2.5 -2.7) (layer "F.SilkS") (width 0.12) (tstamp 00000000-0000-0000-0000-000000000000))
  (fp_line (start 2.5 2.7) (end -2.5 2.7) (layer "F.SilkS") (width 0.12) (tstamp 00000000-0000-0000-0000-000000000000))
  (fp_line (start -3.7 -1.6) (end -3.7 -2.7) (layer "F.SilkS") (width 0.12) (tstamp 00000000-0000-0000-0000-000000000000))
  (fp_line (start 3.65 -2.75) (end -3.65 -2.75) (layer "F.CrtYd") (width 0.05) (tstamp 00000000-0000-0000-0000-000000000000))
  (fp_line (start 3.65 2.75) (end 3.65 -2.75) (layer "F.CrtYd") (width 0.05) (tstamp 00000000-0000-0000-0000-000000000000))
  (fp_line (start -3.65 -2.75) (end -3.65 2.75) (layer "F.CrtYd") (width 0.05) (tstamp 00000000-0000-0000-0000-000000000000))
  (fp_line (start -3.65 2.75) (end 3.65 2.75) (layer "F.CrtYd") (width 0.05) (tstamp 00000000-0000-0000-0000-000000000000))
  (fp_line (start -2.5 -2.5) (end -2.5 2.5) (layer "F.Fab") (width 0.1) (tstamp 00000000-0000-0000-0000-000000000000))
  (fp_line (start -2.5 2.5) (end 2.5 2.5) (layer "F.Fab") (width 0.1) (tstamp 00000000-0000-0000-0000-000000000000))
  (fp_line (start 2.5 2.5) (end 2.5 -2.5) (layer "F.Fab") (width 0.1) (tstamp 00000000-0000-0000-0000-000000000000))
  (fp_line (start 2.5 -2.5) (end -2.5 -2.5) (layer "F.Fab") (width 0.1) (tstamp 00000000-0000-0000-0000-000000000000))
  (fp_line (start -2.5 -1.9) (end -1.9 -2.5) (layer "F.Fab") (width 0.1) (tstamp 00000000-0000-0000-0000-000000000000))
  (fp_circle (center 0 0) (end 0 -1.9) (layer "F.Fab") (width 0.1) (fill none) (tstamp 00000000-0000-0000-0000-000000000000))
  (pad "1" smd rect (at -2.4 -1.7 90) (locked) (size 1.1 2) (layers "F.Cu" "F.Paste" "F.Mask") (tstamp 00000000-0000-0000-0000-000000000000))
  (pad "2" smd rect (at -2.4 0 90) (locked) (size 1.1 2) (layers "F.Cu" "F.Paste" "F.Mask") (tstamp 00000000-0000-0000-0000-000000000000))
  (pad "3" smd rect (at -2.4 1.7 90) (locked) (size 1.1 2) (layers "F.Cu" "F.Paste" "F.Mask") (tstamp 00000000-0000-0000-0000-000000000000))
  (pad "4" smd rect (at 2.4 1.7 90) (locked) (size 1.1 2) (layers "F.Cu" "F.Paste" "F.Mask") (tstamp 00000000-0000-0000-0000-000000000000))
  (pad "5" smd rect (at 2.4 0 90) (locked) (size 1.1 2) (layers "F.Cu" "F.Paste" "F.Mask") (tstamp 00000000-0000-0000-0000-000000000000))
  (pad "6" smd rect (at 2.4 -1.7 90) (locked) (size 1.1 2) (layers "F.Cu" "F.Paste" "F.Mask") (tstamp 00000000-0000-0000-0000-000000000000))
  (model "${KISYS3DMOD}/LED_SMD.3dshapes/LED_RGB_5050-6.wrl"
    (offset (xyz 0 0 0))
    (scale (xyz 1 1 1))
    (rotate (xyz 0 0 0))
  )
)
