(kicad_sch (version 20210126) (generator eeschema)

  (paper "A4")

  (lib_symbols
    (symbol "Connector:AudioJack4" (in_bom yes) (on_board yes)
      (property "Reference" "J" (id 0) (at 0 8.89 0)
        (effects (font (size 1.27 1.27)))
      )
      (property "Value" "AudioJack4" (id 1) (at 0 6.35 0)
        (effects (font (size 1.27 1.27)))
      )
      (property "Footprint" "" (id 2) (at 0 0 0)
        (effects (font (size 1.27 1.27)) hide)
      )
      (property "Datasheet" "~" (id 3) (at 0 0 0)
        (effects (font (size 1.27 1.27)) hide)
      )
      (property "ki_keywords" "audio jack receptacle stereo headphones TRRS connector" (id 4) (at 0 0 0)
        (effects (font (size 1.27 1.27)) hide)
      )
      (property "ki_description" "Audio Jack, 4 Poles (TRRS)" (id 5) (at 0 0 0)
        (effects (font (size 1.27 1.27)) hide)
      )
      (property "ki_fp_filters" "Jack*" (id 6) (at 0 0 0)
        (effects (font (size 1.27 1.27)) hide)
      )
      (symbol "AudioJack4_0_1"
        (rectangle (start -6.35 -5.08) (end -7.62 -7.62)
          (stroke (width 0.254)) (fill (type outline))
        )
        (rectangle (start 2.54 3.81) (end -6.35 -7.62)
          (stroke (width 0.254)) (fill (type background))
        )
        (polyline
          (pts
            (xy 0 -5.08)
            (xy 0.635 -5.715)
            (xy 1.27 -5.08)
            (xy 2.54 -5.08)
          )
          (stroke (width 0.254)) (fill (type none))
        )
        (polyline
          (pts
            (xy -5.715 -5.08)
            (xy -5.08 -5.715)
            (xy -4.445 -5.08)
            (xy -4.445 2.54)
            (xy 2.54 2.54)
          )
          (stroke (width 0.254)) (fill (type none))
        )
        (polyline
          (pts
            (xy -1.905 -5.08)
            (xy -1.27 -5.715)
            (xy -0.635 -5.08)
            (xy -0.635 -2.54)
            (xy 2.54 -2.54)
          )
          (stroke (width 0.254)) (fill (type none))
        )
        (polyline
          (pts
            (xy 2.54 0)
            (xy -2.54 0)
            (xy -2.54 -5.08)
            (xy -3.175 -5.715)
            (xy -3.81 -5.08)
          )
          (stroke (width 0.254)) (fill (type none))
        )
      )
      (symbol "AudioJack4_1_1"
        (pin passive line (at 5.08 -2.54 180) (length 2.54)
          (name "~" (effects (font (size 1.27 1.27))))
          (number "R1" (effects (font (size 1.27 1.27))))
        )
        (pin passive line (at 5.08 0 180) (length 2.54)
          (name "~" (effects (font (size 1.27 1.27))))
          (number "R2" (effects (font (size 1.27 1.27))))
        )
        (pin passive line (at 5.08 2.54 180) (length 2.54)
          (name "~" (effects (font (size 1.27 1.27))))
          (number "S" (effects (font (size 1.27 1.27))))
        )
        (pin passive line (at 5.08 -5.08 180) (length 2.54)
          (name "~" (effects (font (size 1.27 1.27))))
          (number "T" (effects (font (size 1.27 1.27))))
        )
      )
    )
  )


  (wire (pts (xy 55.88 44.45) (xy 60.96 44.45))
    (stroke (width 0) (type solid) (color 0 0 0 0))
    (uuid c56e04c9-afe4-4fa1-8af8-0112d2ba7217)
  )
  (wire (pts (xy 55.88 46.99) (xy 60.96 46.99))
    (stroke (width 0) (type solid) (color 0 0 0 0))
    (uuid b14affe8-ba20-4e8b-ac1e-2d6daa61e838)
  )
  (wire (pts (xy 55.88 49.53) (xy 60.96 49.53))
    (stroke (width 0) (type solid) (color 0 0 0 0))
    (uuid 682b87ea-8477-47a3-8b7e-06565cedef5b)
  )
  (wire (pts (xy 55.88 52.07) (xy 60.96 52.07))
    (stroke (width 0) (type solid) (color 0 0 0 0))
    (uuid fc270c13-5f76-4be3-ba8d-8db609c965ad)
  )

  (hierarchical_label "VCC" (shape input) (at 60.96 44.45 0)
    (effects (font (size 1.27 1.27)) (justify left))
    (uuid 0d77f3fe-042a-4a8a-ab09-36ea1c08042d)
  )
  (hierarchical_label "SDA" (shape input) (at 60.96 46.99 0)
    (effects (font (size 1.27 1.27)) (justify left))
    (uuid 67cf7dab-5ced-41f1-ae2c-66aa82e86de8)
  )
  (hierarchical_label "SCL" (shape input) (at 60.96 49.53 0)
    (effects (font (size 1.27 1.27)) (justify left))
    (uuid 5f104497-9818-4e69-a89b-c949e9177ee0)
  )
  (hierarchical_label "GND" (shape input) (at 60.96 52.07 0)
    (effects (font (size 1.27 1.27)) (justify left))
    (uuid 40e07bd8-316b-4dbb-8ef3-234b43b234d3)
  )

  (symbol (lib_id "Connector:AudioJack4") (at 50.8 46.99 0) (unit 1)
    (in_bom yes) (on_board yes)
    (uuid d2ba49fa-f4bd-4b66-bee6-ee5545de7a25)
    (property "Reference" "J1" (id 0) (at 49.657 39.7468 0))
    (property "Value" "AudioJack4" (id 1) (at 49.657 42.0455 0))
    (property "Footprint" "" (id 2) (at 50.8 46.99 0)
      (effects (font (size 1.27 1.27)) hide)
    )
    (property "Datasheet" "~" (id 3) (at 50.8 46.99 0)
      (effects (font (size 1.27 1.27)) hide)
    )
    (pin "R1" (uuid 76fee2b1-cf77-4829-bd7b-7a19cd02a0fd))
    (pin "R2" (uuid 9aa25600-e1df-4807-8495-b5a3c60c035c))
    (pin "S" (uuid 061cf734-5bae-4b6c-8f55-df1cc6cb96f0))
    (pin "T" (uuid 91f0789f-cacb-4ae5-9585-d9ee219032f1))
  )

  (symbol (lib_id "Connector:AudioJack4") (at 50.8 69.85 0) (unit 1)
    (in_bom yes) (on_board yes)
    (uuid 3655bdf5-d61d-4313-beb1-0b331006adab)
    (property "Reference" "J2" (id 0) (at 49.657 62.6068 0))
    (property "Value" "AudioJack4" (id 1) (at 49.657 64.9055 0))
    (property "Footprint" "" (id 2) (at 50.8 69.85 0)
      (effects (font (size 1.27 1.27)) hide)
    )
    (property "Datasheet" "~" (id 3) (at 50.8 69.85 0)
      (effects (font (size 1.27 1.27)) hide)
    )
    (pin "R1" (uuid 76fee2b1-cf77-4829-bd7b-7a19cd02a0fd))
    (pin "R2" (uuid 9aa25600-e1df-4807-8495-b5a3c60c035c))
    (pin "S" (uuid 061cf734-5bae-4b6c-8f55-df1cc6cb96f0))
    (pin "T" (uuid 91f0789f-cacb-4ae5-9585-d9ee219032f1))
  )
)
